50
xyz
O      -1.630969040000000      0.703727980000000     -0.009211140000000
O      -0.606722590000000     -1.289242520000000     -0.000045730000000
N       1.934169390000000     -0.053437240000000     -0.006098460000000
C       0.728157780000000      0.713366270000000      0.003046250000000
C      -0.544425200000000     -0.084224040000000     -0.002103970000000
H       0.695218700000000      1.399593670000000     -0.862984900000000
H       0.697917930000000      1.381276440000000      0.883559140000000
H       1.964005790000000     -0.662818870000000     -0.827836550000000
H       1.967232710000000     -0.677429380000000      0.804464090000000
H      -2.407285470000000      0.102187680000000     -0.011288740000000
X      -1.642964629168332      0.690943093923770     -0.009238837930855
X      -1.173869304025712      0.321047221435739     -0.005948419496992
X      -2.180505094748368      0.155572007713688     -0.010516157148325
X      -1.520374569017474      1.125870088292396     -0.570345190347084
X      -1.525206489363134      1.129013237926317      0.550934060851929
X      -0.606994869579835     -1.308072249039565      0.000035522258188
X      -0.582533435753100     -0.805185551300063     -0.407598041636552
X      -0.586475324385213     -0.803394707553879      0.405169351470495
X      -0.009456743845324     -1.579788554566833      0.003294270882228
X      -1.249667483767841     -1.533061041210481     -0.002448103160276
X       1.920889765309697     -0.048608471110338     -0.005970677014117
X       1.333130178652448      0.238715558484064     -0.002406289320701
X       1.881511355109147     -0.448545183298395     -0.674237033091653
X       1.884228310052420     -0.460377603288430      0.655303072738725
X       2.593398868491970      0.486378726207454     -0.002710449766954
X       0.751783106401333      0.695643551274822      0.002788049153157
X       0.085657195333359      0.311338658240609      0.000054974130123
X       0.637669524042227      1.180496504178503     -0.696511126339902
X       0.639352418867689      1.165505015416467      0.711978349106594
X      -0.542090797616463     -0.045567015689177     -0.002091451501059
He     -1.642964629451434      0.690943094909383     -0.009238837934834
He     -1.520374575217411      1.125870089122784     -0.570345186961034
He     -1.525206495673366      1.129013238746220      0.550934057262127
He     -0.606994869201377     -1.308072252059861      0.000035522104801
He     -0.009456670280082     -1.579788451197836      0.003294270538936
He     -1.249667570915514     -1.533060938703920     -0.002448103959947
He      1.920889765416830     -0.048608472589737     -0.005970677383480
He      2.593398868795788      0.486378736427007     -0.002710448569453
He      0.751783106339977      0.695643551747579      0.002788049170739
He      1.333130178066434      0.238715559789619     -0.002406289429531
He     -0.542090796870254     -0.045567028754825     -0.002091452150185
He     -0.586475325596245     -0.803394769236698      0.405169468025722
He     -0.582533435976633     -0.805185612602908     -0.407598155335903
He     -1.173869309167742      0.321047213584381     -0.005948419356982
He      0.085657197763882      0.311338650332825      0.000054974289960
He      0.637669532225259      1.180496498179571     -0.696511137299201
He      0.639352427357035      1.165505009135496      0.711978359820320
He      1.881511353781756     -0.448545182543680     -0.674237043248193
He      1.884228309963052     -0.460377602005745      0.655303082592889
He     -2.180505082508855      0.155571977935363     -0.010516157106947
