52
xyz
O       1.374984160000000      1.123735210000000      0.000256290000000
O      -1.374982530000000     -1.123710070000000      0.000346280000000
O       1.375041740000000     -1.123674550000000     -0.000296500000000
O      -1.374976880000000      1.123699870000000     -0.000303980000000
C       0.811224280000000      0.000035930000000     -0.000011390000000
C      -0.811190770000000      0.000013610000000      0.000009290000000
X       1.381151590559813      1.130910010561966      0.016225692136321
X       1.139617099605889      0.611535023027595      0.198781666781047
X       1.195286713836975      0.987153586086631     -0.827611420691295
X       2.143030872269074      0.997055006875226      0.144532669740748
X       0.893092776381572      1.633514936293981      0.124665184090556
X      -1.380017405137734     -1.132592190343284     -0.013239781598147
X      -1.122931164686005     -0.616282355578692     -0.222323875990948
X      -1.248727696608533     -0.930781011037738      0.869555512417014
X      -0.890420892602548     -1.637011933876086     -0.156690892380606
X      -2.102946418317545     -1.026671002984322     -0.112712155442920
X       1.379510975226864     -1.130259594135478     -0.018260995656064
X       1.211420233679131     -0.876166666007752      0.670245289412984
X       1.118813698709293     -0.611063924745208     -0.127480390060427
X       0.943580557506310     -1.682261505741467     -0.140984925234874
X       2.121120308051325     -1.097600959189845     -0.104851626131570
X      -1.378435539517165      1.129223082496022      0.016344459943347
X      -1.111682724867065      0.610226097731223      0.095369356665589
X      -1.210796274862584      0.838319516471170     -0.673970330344386
X      -0.983450802704120      1.694014626257051      0.183902551639665
X      -2.094931074708875      1.144866424284684      0.117142397784288
X       0.812285984235456      0.015774504063122     -0.046686832120653
X      -0.002987026611107     -0.004837471180714     -0.001364729832567
X      -0.812423859690472     -0.015161249751754      0.051793501555887
He      1.381151575365362      1.130909907071186      0.016225655200638
He      1.195287151444881      0.987156436941720     -0.827611536363519
He      2.143031002581572      0.997054913999867      0.144534356787307
He      0.893093211705453      1.633514917589614      0.124667668104041
He     -1.380017357891681     -1.132592110916086     -0.013239707462111
He     -1.248728903427452     -0.930783085655505      0.869556789349859
He     -0.890421318917208     -1.637011952322898     -0.156693549513980
He     -2.102946382800158     -1.026671493538974     -0.112714423791080
He      1.379511033123087     -1.130259722261640     -0.018261037160721
He      0.943580288523764     -1.682261576828087     -0.140982343654040
He      2.121120365381044     -1.097600821263029     -0.104849455477577
He     -1.378435597231053      1.129223205156243      0.016344506502467
He     -0.983450549319582      1.694014957091638      0.183899927288187
He     -2.094931337256007      1.144866476863192      0.117139933690712
He      0.812285845487675      0.015774864916260     -0.046686680523277
He      1.118813860830133     -0.611064278410898     -0.127482737388704
He      1.211419128585774     -0.876163870907570      0.670243806727408
He      1.139616988925668      0.611534603964233      0.198779373135328
He     -0.812423744784082     -0.015161591797203      0.051793384518211
He     -1.210795299930950      0.838316652941149     -0.673968405798220
He     -1.111682725566514      0.610226330821112      0.095371580999884
He     -1.122930801048359     -0.616281967403252     -0.222321428336348
He     -0.002987022976733     -0.004837479461330     -0.001364678902927
