55
xyz
O      -1.158054760000000     -1.373503550000000      0.000207810000000
O       1.581923240000000     -0.826314410000000     -0.000068150000000
O       0.990289640000000      1.365963860000000      0.000038080000000
C      -1.666371910000000      0.938134680000000     -0.000121010000000
C      -0.733848900000000     -0.235651080000000      0.000080920000000
C       0.786693410000000      0.125988340000000      0.000017160000000
H      -1.444424390000000      1.577882190000000      0.869381720000000
H      -1.446059320000000      1.576140800000000     -0.871343290000000
H      -2.712247000000000      0.593959180000000      0.001006770000000
X      -1.164691732422178     -1.389927229746531      0.000373534845653
X      -0.977386528804395     -0.870368583147560      0.415965741104552
X      -0.962877016890046     -0.876235852377988     -0.416615223802638
X      -0.684622797138960     -1.904698659961364     -0.011985449790493
X      -1.853040206234803     -1.436632998527500      0.011294967753790
X       1.591478513912726     -0.835817456735281      0.013329452764627
X       1.246534345437317     -0.384603394866712      0.272754173155783
X       1.254053169065062     -1.458751252566070      0.088869862414352
X       2.271546409464075     -0.609528633760883      0.062862210527781
X       1.295300974498103     -0.580370245604245     -0.700915854389772
X       0.992174008363210      1.372959731788274     -0.016473495624870
X       0.884972891625461      1.035354143604841      0.663536811832414
X       0.904779511731988      0.790440323337989     -0.082072797168971
X       1.651277958938581      1.629357222939589     -0.114174199220267
X       0.467482751642764      1.762246303820224     -0.185655787070975
X      -1.654454795921706      0.913414703722521     -0.000207922282574
X      -1.197012622941495      0.373856581910476      0.004310074288804
X      -1.447833614153085      1.376630758856189      0.717304886043058
X      -1.451721004586391      1.382470213607196     -0.722075338917994
X      -2.549953267924200      0.619263401339752      0.000325012332298
X      -0.715837992430545     -0.198669452575623      0.000621429083818
X      -0.016806245221684     -0.069796928101303     -0.005244610519857
X       0.793155646894023      0.120848771009885     -0.042881584668149
He     -1.164691733153622     -1.389927230850710      0.000373534804664
He     -0.684622782589953     -1.904698640403272     -0.011985447625326
He     -1.853040204208571     -1.436632974547619      0.011294966074015
He      1.591478508845174     -0.835817450401451      0.013329454359681
He      1.254053179931752     -1.458751247373137      0.088869984192856
He      2.271546417166673     -0.609528637909580      0.062862303210676
He      1.295301073994561     -0.580370384913121     -0.700916023835632
He      0.992174008789684      1.372959737245794     -0.016473499062250
He      1.651277972286284      1.629357229777064     -0.114174083746529
He      0.467482737836110      1.762246312689403     -0.185655670146980
He     -1.654454795553391      0.913414703416043     -0.000207922201146
He     -0.715837992820656     -0.198669453881354      0.000621428608321
He     -0.962877010754121     -0.876235818727328     -0.416615220728639
He     -0.977386511199551     -0.870368553326171      0.415965739198422
He     -1.197012617027352      0.373856588035808      0.004310072598131
He      0.793155652125201      0.120848733243412     -0.042881592252007
He      0.904779508390144      0.790440335583701     -0.082072889030149
He      0.884972886585798      1.035354001428524      0.663536721229278
He      1.246534321850774     -0.384603374790729      0.272754039592171
He     -0.016806250334935     -0.069796918329554     -0.005244611018367
He     -1.447833615069261      1.376630759650935      0.717304890092085
He     -1.451721003119353      1.382470210967081     -0.722075342230904
He     -2.549953269955683      0.619263400708522      0.000325013016433
