15
Properties=species:S:1:pos:R:3 Coordinates=T from=T ORCA-job=T run=T pbc="F F F"
O        0.73120073       1.67376648       0.90796531
O        2.24398020      -0.36444553      -0.06099049
O       -1.98788397       1.58281453       0.80427062
C        0.13439851       0.56639698       0.35074910
C        0.87347819      -0.50435994      -0.15948829
C       -1.26562099       0.53560195       0.30524108
C        0.22684383      -1.60826180      -0.71607794
C       -1.91937007      -0.56685762      -0.25079370
C       -1.17026931      -1.62910703      -0.75663178
H        0.81138412      -2.44045921      -1.11241705
H       -3.00789396      -0.57418667      -0.27801114
H       -1.68057225      -2.48838112      -1.19003058
H        1.69465863       1.54523318       0.86565940
H        2.67091755      -1.14914168      -0.43742231
H       -1.35563377       2.24211055       1.14201896
